<svg width="19" height="18" viewBox="0 0 19 18" fill="none" xmlns="http://www.w3.org/2000/svg">
<path d="M9.5 1.62651C12.0181 1.62651 12.3614 1.62651 13.3916 1.62651C14.3072 1.62651 14.7651 1.84337 15.1084 1.95181C15.5663 2.16868 15.9096 2.27711 16.253 2.60241C16.5964 2.92771 16.8253 3.25301 16.9398 3.68675C17.0542 4.01205 17.1687 4.44578 17.2831 5.31325C17.2831 6.28916 17.2831 6.50602 17.2831 9C17.2831 11.494 17.2831 11.7108 17.2831 12.6867C17.2831 13.5542 17.0542 13.988 16.9398 14.3133C16.7108 14.747 16.5964 15.0723 16.253 15.3976C15.9096 15.7229 15.5663 15.9398 15.1084 16.0482C14.7651 16.1566 14.3072 16.2651 13.3916 16.3735C12.3614 16.3735 12.1325 16.3735 9.5 16.3735C6.86747 16.3735 6.63856 16.3735 5.60844 16.3735C4.69277 16.3735 4.23494 16.1566 3.89157 16.0482C3.43374 15.8313 3.09036 15.7229 2.74699 15.3976C2.40362 15.0723 2.1747 14.747 2.06024 14.3133C1.94578 13.988 1.83133 13.5542 1.71687 12.6867C1.71687 11.7108 1.71687 11.494 1.71687 9C1.71687 6.50602 1.71687 6.28916 1.71687 5.31325C1.71687 4.44578 1.94578 4.01205 2.06024 3.68675C2.28916 3.25301 2.40362 2.92771 2.74699 2.60241C3.09036 2.27711 3.43374 2.06024 3.89157 1.95181C4.23494 1.84337 4.69277 1.73494 5.60844 1.62651C6.63856 1.62651 6.98193 1.62651 9.5 1.62651ZM9.5 0C6.86747 0 6.63856 0 5.60844 0C4.57831 0 3.89157 0.216868 3.31928 0.433736C2.74699 0.650603 2.1747 0.975904 1.60241 1.51807C1.03012 2.06024 0.801206 2.49398 0.457832 3.14458C0.228916 3.68675 0.114458 4.33735 0 5.31325C0 6.28916 0 6.61446 0 9C0 11.494 0 11.7108 0 12.6867C0 13.6627 0.228916 14.3133 0.457832 14.8554C0.686748 15.3976 1.03012 15.9398 1.60241 16.4819C2.1747 17.0241 2.63253 17.241 3.31928 17.5663C3.89157 17.7831 4.57831 17.8916 5.60844 18C6.63856 18 6.98193 18 9.5 18C12.0181 18 12.3614 18 13.3916 18C14.4217 18 15.1084 17.7831 15.6807 17.5663C16.253 17.3494 16.8253 17.0241 17.3976 16.4819C17.9699 15.9398 18.1988 15.506 18.5422 14.8554C18.7711 14.3133 18.8855 13.6627 19 12.6867C19 11.7108 19 11.3855 19 9C19 6.61446 19 6.28916 19 5.31325C19 4.33735 18.7711 3.68675 18.5422 3.14458C18.3133 2.60241 17.9699 2.06024 17.3976 1.51807C16.8253 0.975904 16.3675 0.759037 15.6807 0.433736C15.1084 0.216868 14.4217 0.108434 13.3916 0C12.3614 0 12.1325 0 9.5 0Z" fill="#2C3640"/>
<path d="M9.5 4.33735C6.75301 4.33735 4.57831 6.39759 4.57831 9C4.57831 11.6024 6.75301 13.6627 9.5 13.6627C12.247 13.6627 14.4217 11.6024 14.4217 9C14.4217 6.39759 12.247 4.33735 9.5 4.33735ZM9.5 12.0361C7.78313 12.0361 6.29518 10.7349 6.29518 9C6.29518 7.3735 7.66868 5.96386 9.5 5.96386C11.2169 5.96386 12.7048 7.26506 12.7048 9C12.7048 10.6265 11.2169 12.0361 9.5 12.0361Z" fill="#2C3640"/>
<path d="M14.5361 5.31325C15.1683 5.31325 15.6807 4.82778 15.6807 4.22892C15.6807 3.63005 15.1683 3.14458 14.5361 3.14458C13.904 3.14458 13.3916 3.63005 13.3916 4.22892C13.3916 4.82778 13.904 5.31325 14.5361 5.31325Z" fill="#2C3640"/>
</svg>
