<svg width="20" height="25" viewBox="0 0 20 25" fill="none" xmlns="http://www.w3.org/2000/svg">
<path d="M9.38712 5.03569C8.12572 5.12953 6.73114 5.6378 5.68128 6.38065C5.20728 6.71298 4.5139 7.36201 4.16526 7.79208C3.52281 8.58967 3.02138 9.57103 2.75892 10.5446C2.21049 12.5659 2.52388 14.5443 3.78919 17.0621C4.91739 19.3142 7.18164 22.3169 9.37145 24.479C9.87679 24.9755 9.92772 25.0185 10.0296 24.9951C10.1667 24.9599 10.9697 24.1701 11.7728 23.2787C14.8479 19.8694 16.8145 16.5812 17.3472 13.9656C17.7742 11.8622 17.3002 9.76651 15.9996 8.00321C15.7294 7.63569 15.0908 6.97494 14.703 6.66216C13.5278 5.71208 12.094 5.15299 10.5467 5.03178C10.01 4.98878 9.95906 4.98878 9.38712 5.03569ZM10.6994 9.1214C11.3536 9.25434 11.9177 9.56321 12.4309 10.0754C13.1204 10.7635 13.4494 11.5455 13.4494 12.4994C13.4494 13.4534 13.1204 14.2354 12.4309 14.9235C11.7375 15.6155 10.958 15.94 9.99431 15.94C9.00713 15.9361 8.14923 15.5608 7.47152 14.8336C6.86433 14.1806 6.55486 13.3909 6.55486 12.4994C6.55486 11.5455 6.88392 10.7635 7.57337 10.0754C8.0748 9.57494 8.64282 9.25824 9.27743 9.1214C9.64567 9.04712 10.3234 9.04321 10.6994 9.1214Z" fill="#2C3640"/>
</svg>
